{
  "$schema": "http://json-schema.org/schema#",
  "id": "https://fiware.github.io/dataModels/specs/UrbanMobility/GtfsTrip/schema.json",
  "title": "NGSI GTFS Schema - Trip",
  "description": "GTFS Trip",
  "type": "object",
  "allOf": [
    { "$ref": "common-schema.json#/definitions/GSMA-Commons" },
    {
      "properties": {
        "type": {
          "type": "string",
          "enum": [
            "GtfsTrip"
          ],
          "description": "NGSI Entity type"
        },
        "shortName": {
          "type": "string"
        },
        "headSign": {
          "type": "string"
        },
        "hasRoute": {
          "type": "string",
          "format": "uri"
        },
        "hasShape": {
          "type": "string",
          "format": "uri"
        },
        "block": {
          "type": "string"
        },
        "hasService": {
          "type": "string",
          "format": "uri"
        },
        "direction": {
          "type": "number",
          "enum": [0, 1]
        }
      }
    }
  ],
  "required": [
    "id",
    "type",
    "hasRoute",
	"hasService"
  ]
}